%YAML 1.1
%TAG !u! tag:unity3d.com,2011:
--- !u!114 &11400000
MonoBehaviour:
  m_ObjectHideFlags: 0
  m_CorrespondingSourceObject: {fileID: 0}
  m_PrefabInstance: {fileID: 0}
  m_PrefabAsset: {fileID: 0}
  m_GameObject: {fileID: 0}
  m_Enabled: 1
  m_EditorHideFlags: 0
  m_Script: {fileID: 11500000, guid: 6fde00efb4a0c274f840f87a335dc690, type: 3}
  m_Name: GameConfig
  m_EditorClassIdentifier: 
  gameTime: 120
  stationStartTimes: 000000000a000000190000002d000000
  maxScore: 400
  stageCount: 4
  stageDivideTime: 6d000000f100000045010000
  stageDivideShow:
  - name: "\u6DF1\u7761"
    index: 0
    scoreFiled: {x: 0, y: 109}
    inertia: 1
    createOptionInterval: 5
  - name: "\u5165\u68A6"
    index: 1
    scoreFiled: {x: 109, y: 241}
    inertia: 0.8
    createOptionInterval: 7
  - name: Lucid
    index: 2
    scoreFiled: {x: 241, y: 325}
    inertia: 0.4
    createOptionInterval: 8
  - name: "\u5C06\u9192"
    index: 3
    scoreFiled: {x: 325, y: 400}
    inertia: 0.2
    createOptionInterval: 10
  scoreReduceSpeed: 0.5
  aheadSuccessNeedTime: 10
